Introduction • tidyspec
…
Data

The CoHAspec dataset is a spectral table in wide format,
where:

Rows: Wavenumbers (in cm⁻¹).

Columns: Samples (CoHA01, CoHA025, CoHA05, CoHA100).

Values: Absorbance/intensity measurements.

Here’s a preview of the data:

CoHAspec
#> # A tibble: 1,868 × 5
#>    Wavenumber CoHA01 CoHA025 CoHA05 CoHA100
#>         <dbl>  <dbl>   <dbl>  <dbl>   <dbl>
#>  1       399.  0.871   1.36   1.17    1.05 
#>  2       401.  0.893   1.24   1.05    0.925
#>  3       403.  0.910   1.20   0.997   0.876
#>  4       405.  0.914   1.19   0.982   0.867
#>  5       407.  0.908   1.18   0.965   0.857
#>  6       409.  0.887   1.14   0.936   0.828
#>  7       411.  0.856   1.08   0.902   0.791
#>  8       413.  0.819   1.03   0.865   0.748
#>  9       415.  0.789   0.988  0.838   0.717
#> 10       417.  0.768   1.00   0.860   0.735
#> # ℹ 1,858 more rows
…
First, we prepare our spectral data by focusing on a specific region
and applying initial smoothing:

dados_1030_1285 <- CoHAspec_filt %>% 
    tidyspec::spec_smooth_sga() %>%
    dplyr::filter(Wavenumber <= 1285, Wavenumber >= 1030)

Next, we create a comprehensive parameter grid using
tidyr::crossing(), which generates all possible
combinations of the specified parameter values:

params <- tidyr::crossing(ws_val = c(2,4,6,8,10,12),
                          wm_val = c(10, 25, 40, 50))
params 
#> # A tibble: 24 × 2
#>    ws_val wm_val
#>     <dbl>  <dbl>
#>  1      2     10
#>  2      2     25
#>  3      2     40
#>  4      2     50
#>  5      4     10
#>  6      4     25
#>  7      4     40
#>  8      4     50
#>  9      6     10
#> 10      6     25
#> # ℹ 14 more rows
…
